{
    "total": 16,
    "page": 1,
    "per_page": 1,
    "paging": {
        "next": "/categories?page=2&per_page=1",
        "previous": null,
        "first": "/categories?page=1&per_page=1",
        "last": "/categories?page=16&per_page=1"
    },
    "data": [
        {
            "uri": "/categories/animation",
            "name": "Animation",
            "link": "https://vimeo.com/categories/animation",
            "top_level": true,
            "pictures": {
                "uri": "/videos/138242199/pictures/533496914",
                "active": true,
                "type": "custom",
                "sizes": [
                    {
                        "width": 100,
                        "height": 75,
                        "link": "https://i.vimeocdn.com/video/533496914_100x75.jpg"
                    },
                    {
                        "width": 200,
                        "height": 150,
                        "link": "https://i.vimeocdn.com/video/533496914_200x150.jpg"
                    },
                    {
                        "width": 295,
                        "height": 166,
                        "link": "https://i.vimeocdn.com/video/533496914_295x166.jpg"
                    },
                    {
                        "width": 640,
                        "height": 360,
                        "link": "https://i.vimeocdn.com/video/533496914_640x360.jpg"
                    },
                    {
                        "width": 960,
                        "height": 540,
                        "link": "https://i.vimeocdn.com/video/533496914_960x540.jpg"
                    }
                ]
            },
            "parent": null,
            "metadata": {
                "connections": {
                    "channels": {
                        "uri": "/categories/animation/channels",
                        "options": [
                            "GET"
                        ],
                        "total": 32006
                    },
                    "groups": {
                        "uri": "/categories/animation/groups",
                        "options": [
                            "GET"
                        ],
                        "total": 8234
                    },
                    "users": {
                        "uri": "/categories/animation/users",
                        "options": [
                            "GET"
                        ],
                        "total": 1819
                    },
                    "videos": {
                        "uri": "/categories/animation/videos",
                        "options": [
                            "GET"
                        ],
                        "total": 291661
                    },
                    "related": null
                }
            },
            "subcategories": [
                {
                    "uri": "/categories/2d",
                    "name": "2D",
                    "link": "https://vimeo.com/categories/animation/2d"
                },
                {
                    "uri": "/categories/3d",
                    "name": "3D/CG",
                    "link": "https://vimeo.com/categories/animation/3d"
                },
                {
                    "uri": "/categories/mograph",
                    "name": "Mograph",
                    "link": "https://vimeo.com/categories/animation/mograph"
                },
                {
                    "uri": "/categories/projectionmapping",
                    "name": "Projection Mapping",
                    "link": "https://vimeo.com/categories/animation/projectionmapping"
                },
                {
                    "uri": "/categories/stopmotion",
                    "name": "Stop Frame",
                    "link": "https://vimeo.com/categories/animation/stopmotion"
                },
                {
                    "uri": "/categories/vfx",
                    "name": "VFX",
                    "link": "https://vimeo.com/categories/animation/vfx"
                }
            ]
        }
    ]
}